runid           restart_files   restart_dates   tapeload    canesm_cfg:run_start_time   canesm_cfg:run_stop_time    start_time      stop_time   canesm_cfg:runmode
pict-REF        v510-pict       5999_m12        False       6000                        6000                        6000_m01        6000_m12    NEMO-AGCM-pi
pirlx-REF       v510-pict       5999_m12        False       6000                        6000                        6000_m01        6000_m12    NEMO-AGCM-pi-relaxed-co2
pifree-REF      v510-pict       5999_m12        False       6000                        6000                        6000_m01        6000_m12    NEMO-AGCM-pi-free-co2
hist-REF        v510-pict       5999_m12        False       1850                        1850                        1850_m01        1850_m12    NEMO-AGCM-hist
ssp-REF         v510-pict       5999_m12        False       2015                        2015                        2015_m01        2015_m12    NEMO-AGCM-ssp585
rco2-REF        v510-pict       5999_m12        False       1850                        1850                        1850_m01        1850_m12    NEMO-AGCM-hist-relaxed-co2
fco2-REF        v510-pict       5999_m12        False       1850                        1850                        1850_m01        1850_m12    NEMO-AGCM-hist-free-co2
4xco2-REF       v510-pict       5999_m12        False       1850                        1850                        1850_m01        1850_m12    NEMO-AGCM-4xCO2
1ppy-REF        v510-pict       5999_m12        False       1850                        1850                        1850_m01        1850_m12    NEMO-AGCM-1ppy
init-REF        v510-pict       5999_m12        False       0001                        0001                        0001_m01        0001_m12    CanESM-init
maminit-REF     v510-pict       5999_m12        False       0001                        0001                        0001_m01        0001_m12    CanESM-dynMAM-init
dcpp-REF        v510-pict       5999_m12        False       1958                        1958                        1958_m01        1958_m12    NEMO-AGCM-dcpp-assim
