{
    "s1960013124":"initialized at 1960-01-31-24",
    "s1960022824":"initialized at 1960-02-28-24",
    "s1960033124":"initialized at 1960-03-31-24",
    "s1960043024":"initialized at 1960-04-30-24",
    "s1960053124":"initialized at 1960-05-31-24",
    "s1960063024":"initialized at 1960-06-30-24",
    "s1960073124":"initialized at 1960-07-31-24",
    "s1960083124":"initialized at 1960-08-31-24",
    "s1960093024":"initialized at 1960-09-30-24",
    "s1960103124":"initialized at 1960-10-31-24",
    "s1960113024":"initialized at 1960-11-30-24",
    "s1960123124":"initialized at 1960-12-31-24",
    "s1961013124":"initialized at 1961-01-31-24",
    "s1961022824":"initialized at 1961-02-28-24",
    "s1961033124":"initialized at 1961-03-31-24",
    "s1961043024":"initialized at 1961-04-30-24",
    "s1961053124":"initialized at 1961-05-31-24",
    "s1961063024":"initialized at 1961-06-30-24",
    "s1961073124":"initialized at 1961-07-31-24",
    "s1961083124":"initialized at 1961-08-31-24",
    "s1961093024":"initialized at 1961-09-30-24",
    "s1961103124":"initialized at 1961-10-31-24",
    "s1961113024":"initialized at 1961-11-30-24",
    "s1961123124":"initialized at 1961-12-31-24",
    "s1962013124":"initialized at 1962-01-31-24",
    "s1962022824":"initialized at 1962-02-28-24",
    "s1962033124":"initialized at 1962-03-31-24",
    "s1962043024":"initialized at 1962-04-30-24",
    "s1962053124":"initialized at 1962-05-31-24",
    "s1962063024":"initialized at 1962-06-30-24",
    "s1962073124":"initialized at 1962-07-31-24",
    "s1962083124":"initialized at 1962-08-31-24",
    "s1962093024":"initialized at 1962-09-30-24",
    "s1962103124":"initialized at 1962-10-31-24",
    "s1962113024":"initialized at 1962-11-30-24",
    "s1962123124":"initialized at 1962-12-31-24",
    "s1963013124":"initialized at 1963-01-31-24",
    "s1963022824":"initialized at 1963-02-28-24",
    "s1963033124":"initialized at 1963-03-31-24",
    "s1963043024":"initialized at 1963-04-30-24",
    "s1963053124":"initialized at 1963-05-31-24",
    "s1963063024":"initialized at 1963-06-30-24",
    "s1963073124":"initialized at 1963-07-31-24",
    "s1963083124":"initialized at 1963-08-31-24",
    "s1963093024":"initialized at 1963-09-30-24",
    "s1963103124":"initialized at 1963-10-31-24",
    "s1963113024":"initialized at 1963-11-30-24",
    "s1963123124":"initialized at 1963-12-31-24",
    "s1964013124":"initialized at 1964-01-31-24",
    "s1964022824":"initialized at 1964-02-28-24",
    "s1964033124":"initialized at 1964-03-31-24",
    "s1964043024":"initialized at 1964-04-30-24",
    "s1964053124":"initialized at 1964-05-31-24",
    "s1964063024":"initialized at 1964-06-30-24",
    "s1964073124":"initialized at 1964-07-31-24",
    "s1964083124":"initialized at 1964-08-31-24",
    "s1964093024":"initialized at 1964-09-30-24",
    "s1964103124":"initialized at 1964-10-31-24",
    "s1964113024":"initialized at 1964-11-30-24",
    "s1964123124":"initialized at 1964-12-31-24",
    "s1965013124":"initialized at 1965-01-31-24",
    "s1965022824":"initialized at 1965-02-28-24",
    "s1965033124":"initialized at 1965-03-31-24",
    "s1965043024":"initialized at 1965-04-30-24",
    "s1965053124":"initialized at 1965-05-31-24",
    "s1965063024":"initialized at 1965-06-30-24",
    "s1965073124":"initialized at 1965-07-31-24",
    "s1965083124":"initialized at 1965-08-31-24",
    "s1965093024":"initialized at 1965-09-30-24",
    "s1965103124":"initialized at 1965-10-31-24",
    "s1965113024":"initialized at 1965-11-30-24",
    "s1965123124":"initialized at 1965-12-31-24",
    "s1966013124":"initialized at 1966-01-31-24",
    "s1966022824":"initialized at 1966-02-28-24",
    "s1966033124":"initialized at 1966-03-31-24",
    "s1966043024":"initialized at 1966-04-30-24",
    "s1966053124":"initialized at 1966-05-31-24",
    "s1966063024":"initialized at 1966-06-30-24",
    "s1966073124":"initialized at 1966-07-31-24",
    "s1966083124":"initialized at 1966-08-31-24",
    "s1966093024":"initialized at 1966-09-30-24",
    "s1966103124":"initialized at 1966-10-31-24",
    "s1966113024":"initialized at 1966-11-30-24",
    "s1966123124":"initialized at 1966-12-31-24",
    "s1967013124":"initialized at 1967-01-31-24",
    "s1967022824":"initialized at 1967-02-28-24",
    "s1967033124":"initialized at 1967-03-31-24",
    "s1967043024":"initialized at 1967-04-30-24",
    "s1967053124":"initialized at 1967-05-31-24",
    "s1967063024":"initialized at 1967-06-30-24",
    "s1967073124":"initialized at 1967-07-31-24",
    "s1967083124":"initialized at 1967-08-31-24",
    "s1967093024":"initialized at 1967-09-30-24",
    "s1967103124":"initialized at 1967-10-31-24",
    "s1967113024":"initialized at 1967-11-30-24",
    "s1967123124":"initialized at 1967-12-31-24",
    "s1968013124":"initialized at 1968-01-31-24",
    "s1968022824":"initialized at 1968-02-28-24",
    "s1968033124":"initialized at 1968-03-31-24",
    "s1968043024":"initialized at 1968-04-30-24",
    "s1968053124":"initialized at 1968-05-31-24",
    "s1968063024":"initialized at 1968-06-30-24",
    "s1968073124":"initialized at 1968-07-31-24",
    "s1968083124":"initialized at 1968-08-31-24",
    "s1968093024":"initialized at 1968-09-30-24",
    "s1968103124":"initialized at 1968-10-31-24",
    "s1968113024":"initialized at 1968-11-30-24",
    "s1968123124":"initialized at 1968-12-31-24",
    "s1969013124":"initialized at 1969-01-31-24",
    "s1969022824":"initialized at 1969-02-28-24",
    "s1969033124":"initialized at 1969-03-31-24",
    "s1969043024":"initialized at 1969-04-30-24",
    "s1969053124":"initialized at 1969-05-31-24",
    "s1969063024":"initialized at 1969-06-30-24",
    "s1969073124":"initialized at 1969-07-31-24",
    "s1969083124":"initialized at 1969-08-31-24",
    "s1969093024":"initialized at 1969-09-30-24",
    "s1969103124":"initialized at 1969-10-31-24",
    "s1969113024":"initialized at 1969-11-30-24",
    "s1969123124":"initialized at 1969-12-31-24",
    "s1970013124":"initialized at 1970-01-31-24",
    "s1970022824":"initialized at 1970-02-28-24",
    "s1970033124":"initialized at 1970-03-31-24",
    "s1970043024":"initialized at 1970-04-30-24",
    "s1970053124":"initialized at 1970-05-31-24",
    "s1970063024":"initialized at 1970-06-30-24",
    "s1970073124":"initialized at 1970-07-31-24",
    "s1970083124":"initialized at 1970-08-31-24",
    "s1970093024":"initialized at 1970-09-30-24",
    "s1970103124":"initialized at 1970-10-31-24",
    "s1970113024":"initialized at 1970-11-30-24",
    "s1970123124":"initialized at 1970-12-31-24",
    "s1971013124":"initialized at 1971-01-31-24",
    "s1971022824":"initialized at 1971-02-28-24",
    "s1971033124":"initialized at 1971-03-31-24",
    "s1971043024":"initialized at 1971-04-30-24",
    "s1971053124":"initialized at 1971-05-31-24",
    "s1971063024":"initialized at 1971-06-30-24",
    "s1971073124":"initialized at 1971-07-31-24",
    "s1971083124":"initialized at 1971-08-31-24",
    "s1971093024":"initialized at 1971-09-30-24",
    "s1971103124":"initialized at 1971-10-31-24",
    "s1971113024":"initialized at 1971-11-30-24",
    "s1971123124":"initialized at 1971-12-31-24",
    "s1972013124":"initialized at 1972-01-31-24",
    "s1972022824":"initialized at 1972-02-28-24",
    "s1972033124":"initialized at 1972-03-31-24",
    "s1972043024":"initialized at 1972-04-30-24",
    "s1972053124":"initialized at 1972-05-31-24",
    "s1972063024":"initialized at 1972-06-30-24",
    "s1972073124":"initialized at 1972-07-31-24",
    "s1972083124":"initialized at 1972-08-31-24",
    "s1972093024":"initialized at 1972-09-30-24",
    "s1972103124":"initialized at 1972-10-31-24",
    "s1972113024":"initialized at 1972-11-30-24",
    "s1972123124":"initialized at 1972-12-31-24",
    "s1973013124":"initialized at 1973-01-31-24",
    "s1973022824":"initialized at 1973-02-28-24",
    "s1973033124":"initialized at 1973-03-31-24",
    "s1973043024":"initialized at 1973-04-30-24",
    "s1973053124":"initialized at 1973-05-31-24",
    "s1973063024":"initialized at 1973-06-30-24",
    "s1973073124":"initialized at 1973-07-31-24",
    "s1973083124":"initialized at 1973-08-31-24",
    "s1973093024":"initialized at 1973-09-30-24",
    "s1973103124":"initialized at 1973-10-31-24",
    "s1973113024":"initialized at 1973-11-30-24",
    "s1973123124":"initialized at 1973-12-31-24",
    "s1974013124":"initialized at 1974-01-31-24",
    "s1974022824":"initialized at 1974-02-28-24",
    "s1974033124":"initialized at 1974-03-31-24",
    "s1974043024":"initialized at 1974-04-30-24",
    "s1974053124":"initialized at 1974-05-31-24",
    "s1974063024":"initialized at 1974-06-30-24",
    "s1974073124":"initialized at 1974-07-31-24",
    "s1974083124":"initialized at 1974-08-31-24",
    "s1974093024":"initialized at 1974-09-30-24",
    "s1974103124":"initialized at 1974-10-31-24",
    "s1974113024":"initialized at 1974-11-30-24",
    "s1974123124":"initialized at 1974-12-31-24",
    "s1975013124":"initialized at 1975-01-31-24",
    "s1975022824":"initialized at 1975-02-28-24",
    "s1975033124":"initialized at 1975-03-31-24",
    "s1975043024":"initialized at 1975-04-30-24",
    "s1975053124":"initialized at 1975-05-31-24",
    "s1975063024":"initialized at 1975-06-30-24",
    "s1975073124":"initialized at 1975-07-31-24",
    "s1975083124":"initialized at 1975-08-31-24",
    "s1975093024":"initialized at 1975-09-30-24",
    "s1975103124":"initialized at 1975-10-31-24",
    "s1975113024":"initialized at 1975-11-30-24",
    "s1975123124":"initialized at 1975-12-31-24",
    "s1976013124":"initialized at 1976-01-31-24",
    "s1976022824":"initialized at 1976-02-28-24",
    "s1976033124":"initialized at 1976-03-31-24",
    "s1976043024":"initialized at 1976-04-30-24",
    "s1976053124":"initialized at 1976-05-31-24",
    "s1976063024":"initialized at 1976-06-30-24",
    "s1976073124":"initialized at 1976-07-31-24",
    "s1976083124":"initialized at 1976-08-31-24",
    "s1976093024":"initialized at 1976-09-30-24",
    "s1976103124":"initialized at 1976-10-31-24",
    "s1976113024":"initialized at 1976-11-30-24",
    "s1976123124":"initialized at 1976-12-31-24",
    "s1977013124":"initialized at 1977-01-31-24",
    "s1977022824":"initialized at 1977-02-28-24",
    "s1977033124":"initialized at 1977-03-31-24",
    "s1977043024":"initialized at 1977-04-30-24",
    "s1977053124":"initialized at 1977-05-31-24",
    "s1977063024":"initialized at 1977-06-30-24",
    "s1977073124":"initialized at 1977-07-31-24",
    "s1977083124":"initialized at 1977-08-31-24",
    "s1977093024":"initialized at 1977-09-30-24",
    "s1977103124":"initialized at 1977-10-31-24",
    "s1977113024":"initialized at 1977-11-30-24",
    "s1977123124":"initialized at 1977-12-31-24",
    "s1978013124":"initialized at 1978-01-31-24",
    "s1978022824":"initialized at 1978-02-28-24",
    "s1978033124":"initialized at 1978-03-31-24",
    "s1978043024":"initialized at 1978-04-30-24",
    "s1978053124":"initialized at 1978-05-31-24",
    "s1978063024":"initialized at 1978-06-30-24",
    "s1978073124":"initialized at 1978-07-31-24",
    "s1978083124":"initialized at 1978-08-31-24",
    "s1978093024":"initialized at 1978-09-30-24",
    "s1978103124":"initialized at 1978-10-31-24",
    "s1978113024":"initialized at 1978-11-30-24",
    "s1978123124":"initialized at 1978-12-31-24",
    "s1979013124":"initialized at 1979-01-31-24",
    "s1979022824":"initialized at 1979-02-28-24",
    "s1979033124":"initialized at 1979-03-31-24",
    "s1979043024":"initialized at 1979-04-30-24",
    "s1979053124":"initialized at 1979-05-31-24",
    "s1979063024":"initialized at 1979-06-30-24",
    "s1979073124":"initialized at 1979-07-31-24",
    "s1979083124":"initialized at 1979-08-31-24",
    "s1979093024":"initialized at 1979-09-30-24",
    "s1979103124":"initialized at 1979-10-31-24",
    "s1979113024":"initialized at 1979-11-30-24",
    "s1979123124":"initialized at 1979-12-31-24",
    "s1980013124":"initialized at 1980-01-31-24",
    "s1980022824":"initialized at 1980-02-28-24",
    "s1980033124":"initialized at 1980-03-31-24",
    "s1980043024":"initialized at 1980-04-30-24",
    "s1980053124":"initialized at 1980-05-31-24",
    "s1980063024":"initialized at 1980-06-30-24",
    "s1980073124":"initialized at 1980-07-31-24",
    "s1980083124":"initialized at 1980-08-31-24",
    "s1980093024":"initialized at 1980-09-30-24",
    "s1980103124":"initialized at 1980-10-31-24",
    "s1980113024":"initialized at 1980-11-30-24",
    "s1980123124":"initialized at 1980-12-31-24",
    "s1981013124":"initialized at 1981-01-31-24",
    "s1981022824":"initialized at 1981-02-28-24",
    "s1981033124":"initialized at 1981-03-31-24",
    "s1981043024":"initialized at 1981-04-30-24",
    "s1981053124":"initialized at 1981-05-31-24",
    "s1981063024":"initialized at 1981-06-30-24",
    "s1981073124":"initialized at 1981-07-31-24",
    "s1981083124":"initialized at 1981-08-31-24",
    "s1981093024":"initialized at 1981-09-30-24",
    "s1981103124":"initialized at 1981-10-31-24",
    "s1981113024":"initialized at 1981-11-30-24",
    "s1981123124":"initialized at 1981-12-31-24",
    "s1982013124":"initialized at 1982-01-31-24",
    "s1982022824":"initialized at 1982-02-28-24",
    "s1982033124":"initialized at 1982-03-31-24",
    "s1982043024":"initialized at 1982-04-30-24",
    "s1982053124":"initialized at 1982-05-31-24",
    "s1982063024":"initialized at 1982-06-30-24",
    "s1982073124":"initialized at 1982-07-31-24",
    "s1982083124":"initialized at 1982-08-31-24",
    "s1982093024":"initialized at 1982-09-30-24",
    "s1982103124":"initialized at 1982-10-31-24",
    "s1982113024":"initialized at 1982-11-30-24",
    "s1982123124":"initialized at 1982-12-31-24",
    "s1983013124":"initialized at 1983-01-31-24",
    "s1983022824":"initialized at 1983-02-28-24",
    "s1983033124":"initialized at 1983-03-31-24",
    "s1983043024":"initialized at 1983-04-30-24",
    "s1983053124":"initialized at 1983-05-31-24",
    "s1983063024":"initialized at 1983-06-30-24",
    "s1983073124":"initialized at 1983-07-31-24",
    "s1983083124":"initialized at 1983-08-31-24",
    "s1983093024":"initialized at 1983-09-30-24",
    "s1983103124":"initialized at 1983-10-31-24",
    "s1983113024":"initialized at 1983-11-30-24",
    "s1983123124":"initialized at 1983-12-31-24",
    "s1984013124":"initialized at 1984-01-31-24",
    "s1984022824":"initialized at 1984-02-28-24",
    "s1984033124":"initialized at 1984-03-31-24",
    "s1984043024":"initialized at 1984-04-30-24",
    "s1984053124":"initialized at 1984-05-31-24",
    "s1984063024":"initialized at 1984-06-30-24",
    "s1984073124":"initialized at 1984-07-31-24",
    "s1984083124":"initialized at 1984-08-31-24",
    "s1984093024":"initialized at 1984-09-30-24",
    "s1984103124":"initialized at 1984-10-31-24",
    "s1984113024":"initialized at 1984-11-30-24",
    "s1984123124":"initialized at 1984-12-31-24",
    "s1985013124":"initialized at 1985-01-31-24",
    "s1985022824":"initialized at 1985-02-28-24",
    "s1985033124":"initialized at 1985-03-31-24",
    "s1985043024":"initialized at 1985-04-30-24",
    "s1985053124":"initialized at 1985-05-31-24",
    "s1985063024":"initialized at 1985-06-30-24",
    "s1985073124":"initialized at 1985-07-31-24",
    "s1985083124":"initialized at 1985-08-31-24",
    "s1985093024":"initialized at 1985-09-30-24",
    "s1985103124":"initialized at 1985-10-31-24",
    "s1985113024":"initialized at 1985-11-30-24",
    "s1985123124":"initialized at 1985-12-31-24",
    "s1986013124":"initialized at 1986-01-31-24",
    "s1986022824":"initialized at 1986-02-28-24",
    "s1986033124":"initialized at 1986-03-31-24",
    "s1986043024":"initialized at 1986-04-30-24",
    "s1986053124":"initialized at 1986-05-31-24",
    "s1986063024":"initialized at 1986-06-30-24",
    "s1986073124":"initialized at 1986-07-31-24",
    "s1986083124":"initialized at 1986-08-31-24",
    "s1986093024":"initialized at 1986-09-30-24",
    "s1986103124":"initialized at 1986-10-31-24",
    "s1986113024":"initialized at 1986-11-30-24",
    "s1986123124":"initialized at 1986-12-31-24",
    "s1987013124":"initialized at 1987-01-31-24",
    "s1987022824":"initialized at 1987-02-28-24",
    "s1987033124":"initialized at 1987-03-31-24",
    "s1987043024":"initialized at 1987-04-30-24",
    "s1987053124":"initialized at 1987-05-31-24",
    "s1987063024":"initialized at 1987-06-30-24",
    "s1987073124":"initialized at 1987-07-31-24",
    "s1987083124":"initialized at 1987-08-31-24",
    "s1987093024":"initialized at 1987-09-30-24",
    "s1987103124":"initialized at 1987-10-31-24",
    "s1987113024":"initialized at 1987-11-30-24",
    "s1987123124":"initialized at 1987-12-31-24",
    "s1988013124":"initialized at 1988-01-31-24",
    "s1988022824":"initialized at 1988-02-28-24",
    "s1988033124":"initialized at 1988-03-31-24",
    "s1988043024":"initialized at 1988-04-30-24",
    "s1988053124":"initialized at 1988-05-31-24",
    "s1988063024":"initialized at 1988-06-30-24",
    "s1988073124":"initialized at 1988-07-31-24",
    "s1988083124":"initialized at 1988-08-31-24",
    "s1988093024":"initialized at 1988-09-30-24",
    "s1988103124":"initialized at 1988-10-31-24",
    "s1988113024":"initialized at 1988-11-30-24",
    "s1988123124":"initialized at 1988-12-31-24",
    "s1989013124":"initialized at 1989-01-31-24",
    "s1989022824":"initialized at 1989-02-28-24",
    "s1989033124":"initialized at 1989-03-31-24",
    "s1989043024":"initialized at 1989-04-30-24",
    "s1989053124":"initialized at 1989-05-31-24",
    "s1989063024":"initialized at 1989-06-30-24",
    "s1989073124":"initialized at 1989-07-31-24",
    "s1989083124":"initialized at 1989-08-31-24",
    "s1989093024":"initialized at 1989-09-30-24",
    "s1989103124":"initialized at 1989-10-31-24",
    "s1989113024":"initialized at 1989-11-30-24",
    "s1989123124":"initialized at 1989-12-31-24",
    "s1990013124":"initialized at 1990-01-31-24",
    "s1990022824":"initialized at 1990-02-28-24",
    "s1990033124":"initialized at 1990-03-31-24",
    "s1990043024":"initialized at 1990-04-30-24",
    "s1990053124":"initialized at 1990-05-31-24",
    "s1990063024":"initialized at 1990-06-30-24",
    "s1990073124":"initialized at 1990-07-31-24",
    "s1990083124":"initialized at 1990-08-31-24",
    "s1990093024":"initialized at 1990-09-30-24",
    "s1990103124":"initialized at 1990-10-31-24",
    "s1990113024":"initialized at 1990-11-30-24",
    "s1990123124":"initialized at 1990-12-31-24",
    "s1991013124":"initialized at 1991-01-31-24",
    "s1991022824":"initialized at 1991-02-28-24",
    "s1991033124":"initialized at 1991-03-31-24",
    "s1991043024":"initialized at 1991-04-30-24",
    "s1991053124":"initialized at 1991-05-31-24",
    "s1991063024":"initialized at 1991-06-30-24",
    "s1991073124":"initialized at 1991-07-31-24",
    "s1991083124":"initialized at 1991-08-31-24",
    "s1991093024":"initialized at 1991-09-30-24",
    "s1991103124":"initialized at 1991-10-31-24",
    "s1991113024":"initialized at 1991-11-30-24",
    "s1991123124":"initialized at 1991-12-31-24",
    "s1992013124":"initialized at 1992-01-31-24",
    "s1992022824":"initialized at 1992-02-28-24",
    "s1992033124":"initialized at 1992-03-31-24",
    "s1992043024":"initialized at 1992-04-30-24",
    "s1992053124":"initialized at 1992-05-31-24",
    "s1992063024":"initialized at 1992-06-30-24",
    "s1992073124":"initialized at 1992-07-31-24",
    "s1992083124":"initialized at 1992-08-31-24",
    "s1992093024":"initialized at 1992-09-30-24",
    "s1992103124":"initialized at 1992-10-31-24",
    "s1992113024":"initialized at 1992-11-30-24",
    "s1992123124":"initialized at 1992-12-31-24",
    "s1993013124":"initialized at 1993-01-31-24",
    "s1993022824":"initialized at 1993-02-28-24",
    "s1993033124":"initialized at 1993-03-31-24",
    "s1993043024":"initialized at 1993-04-30-24",
    "s1993053124":"initialized at 1993-05-31-24",
    "s1993063024":"initialized at 1993-06-30-24",
    "s1993073124":"initialized at 1993-07-31-24",
    "s1993083124":"initialized at 1993-08-31-24",
    "s1993093024":"initialized at 1993-09-30-24",
    "s1993103124":"initialized at 1993-10-31-24",
    "s1993113024":"initialized at 1993-11-30-24",
    "s1993123124":"initialized at 1993-12-31-24",
    "s1994013124":"initialized at 1994-01-31-24",
    "s1994022824":"initialized at 1994-02-28-24",
    "s1994033124":"initialized at 1994-03-31-24",
    "s1994043024":"initialized at 1994-04-30-24",
    "s1994053124":"initialized at 1994-05-31-24",
    "s1994063024":"initialized at 1994-06-30-24",
    "s1994073124":"initialized at 1994-07-31-24",
    "s1994083124":"initialized at 1994-08-31-24",
    "s1994093024":"initialized at 1994-09-30-24",
    "s1994103124":"initialized at 1994-10-31-24",
    "s1994113024":"initialized at 1994-11-30-24",
    "s1994123124":"initialized at 1994-12-31-24",
    "s1995013124":"initialized at 1995-01-31-24",
    "s1995022824":"initialized at 1995-02-28-24",
    "s1995033124":"initialized at 1995-03-31-24",
    "s1995043024":"initialized at 1995-04-30-24",
    "s1995053124":"initialized at 1995-05-31-24",
    "s1995063024":"initialized at 1995-06-30-24",
    "s1995073124":"initialized at 1995-07-31-24",
    "s1995083124":"initialized at 1995-08-31-24",
    "s1995093024":"initialized at 1995-09-30-24",
    "s1995103124":"initialized at 1995-10-31-24",
    "s1995113024":"initialized at 1995-11-30-24",
    "s1995123124":"initialized at 1995-12-31-24",
    "s1996013124":"initialized at 1996-01-31-24",
    "s1996022824":"initialized at 1996-02-28-24",
    "s1996033124":"initialized at 1996-03-31-24",
    "s1996043024":"initialized at 1996-04-30-24",
    "s1996053124":"initialized at 1996-05-31-24",
    "s1996063024":"initialized at 1996-06-30-24",
    "s1996073124":"initialized at 1996-07-31-24",
    "s1996083124":"initialized at 1996-08-31-24",
    "s1996093024":"initialized at 1996-09-30-24",
    "s1996103124":"initialized at 1996-10-31-24",
    "s1996113024":"initialized at 1996-11-30-24",
    "s1996123124":"initialized at 1996-12-31-24",
    "s1997013124":"initialized at 1997-01-31-24",
    "s1997022824":"initialized at 1997-02-28-24",
    "s1997033124":"initialized at 1997-03-31-24",
    "s1997043024":"initialized at 1997-04-30-24",
    "s1997053124":"initialized at 1997-05-31-24",
    "s1997063024":"initialized at 1997-06-30-24",
    "s1997073124":"initialized at 1997-07-31-24",
    "s1997083124":"initialized at 1997-08-31-24",
    "s1997093024":"initialized at 1997-09-30-24",
    "s1997103124":"initialized at 1997-10-31-24",
    "s1997113024":"initialized at 1997-11-30-24",
    "s1997123124":"initialized at 1997-12-31-24",
    "s1998013124":"initialized at 1998-01-31-24",
    "s1998022824":"initialized at 1998-02-28-24",
    "s1998033124":"initialized at 1998-03-31-24",
    "s1998043024":"initialized at 1998-04-30-24",
    "s1998053124":"initialized at 1998-05-31-24",
    "s1998063024":"initialized at 1998-06-30-24",
    "s1998073124":"initialized at 1998-07-31-24",
    "s1998083124":"initialized at 1998-08-31-24",
    "s1998093024":"initialized at 1998-09-30-24",
    "s1998103124":"initialized at 1998-10-31-24",
    "s1998113024":"initialized at 1998-11-30-24",
    "s1998123124":"initialized at 1998-12-31-24",
    "s1999013124":"initialized at 1999-01-31-24",
    "s1999022824":"initialized at 1999-02-28-24",
    "s1999033124":"initialized at 1999-03-31-24",
    "s1999043024":"initialized at 1999-04-30-24",
    "s1999053124":"initialized at 1999-05-31-24",
    "s1999063024":"initialized at 1999-06-30-24",
    "s1999073124":"initialized at 1999-07-31-24",
    "s1999083124":"initialized at 1999-08-31-24",
    "s1999093024":"initialized at 1999-09-30-24",
    "s1999103124":"initialized at 1999-10-31-24",
    "s1999113024":"initialized at 1999-11-30-24",
    "s1999123124":"initialized at 1999-12-31-24",
    "s2000013124":"initialized at 2000-01-31-24",
    "s2000022824":"initialized at 2000-02-28-24",
    "s2000033124":"initialized at 2000-03-31-24",
    "s2000043024":"initialized at 2000-04-30-24",
    "s2000053124":"initialized at 2000-05-31-24",
    "s2000063024":"initialized at 2000-06-30-24",
    "s2000073124":"initialized at 2000-07-31-24",
    "s2000083124":"initialized at 2000-08-31-24",
    "s2000093024":"initialized at 2000-09-30-24",
    "s2000103124":"initialized at 2000-10-31-24",
    "s2000113024":"initialized at 2000-11-30-24",
    "s2000123124":"initialized at 2000-12-31-24",
    "s2001013124":"initialized at 2001-01-31-24",
    "s2001022824":"initialized at 2001-02-28-24",
    "s2001033124":"initialized at 2001-03-31-24",
    "s2001043024":"initialized at 2001-04-30-24",
    "s2001053124":"initialized at 2001-05-31-24",
    "s2001063024":"initialized at 2001-06-30-24",
    "s2001073124":"initialized at 2001-07-31-24",
    "s2001083124":"initialized at 2001-08-31-24",
    "s2001093024":"initialized at 2001-09-30-24",
    "s2001103124":"initialized at 2001-10-31-24",
    "s2001113024":"initialized at 2001-11-30-24",
    "s2001123124":"initialized at 2001-12-31-24",
    "s2002013124":"initialized at 2002-01-31-24",
    "s2002022824":"initialized at 2002-02-28-24",
    "s2002033124":"initialized at 2002-03-31-24",
    "s2002043024":"initialized at 2002-04-30-24",
    "s2002053124":"initialized at 2002-05-31-24",
    "s2002063024":"initialized at 2002-06-30-24",
    "s2002073124":"initialized at 2002-07-31-24",
    "s2002083124":"initialized at 2002-08-31-24",
    "s2002093024":"initialized at 2002-09-30-24",
    "s2002103124":"initialized at 2002-10-31-24",
    "s2002113024":"initialized at 2002-11-30-24",
    "s2002123124":"initialized at 2002-12-31-24",
    "s2003013124":"initialized at 2003-01-31-24",
    "s2003022824":"initialized at 2003-02-28-24",
    "s2003033124":"initialized at 2003-03-31-24",
    "s2003043024":"initialized at 2003-04-30-24",
    "s2003053124":"initialized at 2003-05-31-24",
    "s2003063024":"initialized at 2003-06-30-24",
    "s2003073124":"initialized at 2003-07-31-24",
    "s2003083124":"initialized at 2003-08-31-24",
    "s2003093024":"initialized at 2003-09-30-24",
    "s2003103124":"initialized at 2003-10-31-24",
    "s2003113024":"initialized at 2003-11-30-24",
    "s2003123124":"initialized at 2003-12-31-24",
    "s2004013124":"initialized at 2004-01-31-24",
    "s2004022824":"initialized at 2004-02-28-24",
    "s2004033124":"initialized at 2004-03-31-24",
    "s2004043024":"initialized at 2004-04-30-24",
    "s2004053124":"initialized at 2004-05-31-24",
    "s2004063024":"initialized at 2004-06-30-24",
    "s2004073124":"initialized at 2004-07-31-24",
    "s2004083124":"initialized at 2004-08-31-24",
    "s2004093024":"initialized at 2004-09-30-24",
    "s2004103124":"initialized at 2004-10-31-24",
    "s2004113024":"initialized at 2004-11-30-24",
    "s2004123124":"initialized at 2004-12-31-24",
    "s2005013124":"initialized at 2005-01-31-24",
    "s2005022824":"initialized at 2005-02-28-24",
    "s2005033124":"initialized at 2005-03-31-24",
    "s2005043024":"initialized at 2005-04-30-24",
    "s2005053124":"initialized at 2005-05-31-24",
    "s2005063024":"initialized at 2005-06-30-24",
    "s2005073124":"initialized at 2005-07-31-24",
    "s2005083124":"initialized at 2005-08-31-24",
    "s2005093024":"initialized at 2005-09-30-24",
    "s2005103124":"initialized at 2005-10-31-24",
    "s2005113024":"initialized at 2005-11-30-24",
    "s2005123124":"initialized at 2005-12-31-24",
    "s2006013124":"initialized at 2006-01-31-24",
    "s2006022824":"initialized at 2006-02-28-24",
    "s2006033124":"initialized at 2006-03-31-24",
    "s2006043024":"initialized at 2006-04-30-24",
    "s2006053124":"initialized at 2006-05-31-24",
    "s2006063024":"initialized at 2006-06-30-24",
    "s2006073124":"initialized at 2006-07-31-24",
    "s2006083124":"initialized at 2006-08-31-24",
    "s2006093024":"initialized at 2006-09-30-24",
    "s2006103124":"initialized at 2006-10-31-24",
    "s2006113024":"initialized at 2006-11-30-24",
    "s2006123124":"initialized at 2006-12-31-24",
    "s2007013124":"initialized at 2007-01-31-24",
    "s2007022824":"initialized at 2007-02-28-24",
    "s2007033124":"initialized at 2007-03-31-24",
    "s2007043024":"initialized at 2007-04-30-24",
    "s2007053124":"initialized at 2007-05-31-24",
    "s2007063024":"initialized at 2007-06-30-24",
    "s2007073124":"initialized at 2007-07-31-24",
    "s2007083124":"initialized at 2007-08-31-24",
    "s2007093024":"initialized at 2007-09-30-24",
    "s2007103124":"initialized at 2007-10-31-24",
    "s2007113024":"initialized at 2007-11-30-24",
    "s2007123124":"initialized at 2007-12-31-24",
    "s2008013124":"initialized at 2008-01-31-24",
    "s2008022824":"initialized at 2008-02-28-24",
    "s2008033124":"initialized at 2008-03-31-24",
    "s2008043024":"initialized at 2008-04-30-24",
    "s2008053124":"initialized at 2008-05-31-24",
    "s2008063024":"initialized at 2008-06-30-24",
    "s2008073124":"initialized at 2008-07-31-24",
    "s2008083124":"initialized at 2008-08-31-24",
    "s2008093024":"initialized at 2008-09-30-24",
    "s2008103124":"initialized at 2008-10-31-24",
    "s2008113024":"initialized at 2008-11-30-24",
    "s2008123124":"initialized at 2008-12-31-24",
    "s2009013124":"initialized at 2009-01-31-24",
    "s2009022824":"initialized at 2009-02-28-24",
    "s2009033124":"initialized at 2009-03-31-24",
    "s2009043024":"initialized at 2009-04-30-24",
    "s2009053124":"initialized at 2009-05-31-24",
    "s2009063024":"initialized at 2009-06-30-24",
    "s2009073124":"initialized at 2009-07-31-24",
    "s2009083124":"initialized at 2009-08-31-24",
    "s2009093024":"initialized at 2009-09-30-24",
    "s2009103124":"initialized at 2009-10-31-24",
    "s2009113024":"initialized at 2009-11-30-24",
    "s2009123124":"initialized at 2009-12-31-24",
    "s2010013124":"initialized at 2010-01-31-24",
    "s2010022824":"initialized at 2010-02-28-24",
    "s2010033124":"initialized at 2010-03-31-24",
    "s2010043024":"initialized at 2010-04-30-24",
    "s2010053124":"initialized at 2010-05-31-24",
    "s2010063024":"initialized at 2010-06-30-24",
    "s2010073124":"initialized at 2010-07-31-24",
    "s2010083124":"initialized at 2010-08-31-24",
    "s2010093024":"initialized at 2010-09-30-24",
    "s2010103124":"initialized at 2010-10-31-24",
    "s2010113024":"initialized at 2010-11-30-24",
    "s2010123124":"initialized at 2010-12-31-24",
    "s2011013124":"initialized at 2011-01-31-24",
    "s2011022824":"initialized at 2011-02-28-24",
    "s2011033124":"initialized at 2011-03-31-24",
    "s2011043024":"initialized at 2011-04-30-24",
    "s2011053124":"initialized at 2011-05-31-24",
    "s2011063024":"initialized at 2011-06-30-24",
    "s2011073124":"initialized at 2011-07-31-24",
    "s2011083124":"initialized at 2011-08-31-24",
    "s2011093024":"initialized at 2011-09-30-24",
    "s2011103124":"initialized at 2011-10-31-24",
    "s2011113024":"initialized at 2011-11-30-24",
    "s2011123124":"initialized at 2011-12-31-24",
    "s2012013124":"initialized at 2012-01-31-24",
    "s2012022824":"initialized at 2012-02-28-24",
    "s2012033124":"initialized at 2012-03-31-24",
    "s2012043024":"initialized at 2012-04-30-24",
    "s2012053124":"initialized at 2012-05-31-24",
    "s2012063024":"initialized at 2012-06-30-24",
    "s2012073124":"initialized at 2012-07-31-24",
    "s2012083124":"initialized at 2012-08-31-24",
    "s2012093024":"initialized at 2012-09-30-24",
    "s2012103124":"initialized at 2012-10-31-24",
    "s2012113024":"initialized at 2012-11-30-24",
    "s2012123124":"initialized at 2012-12-31-24",
    "s2013013124":"initialized at 2013-01-31-24",
    "s2013022824":"initialized at 2013-02-28-24",
    "s2013033124":"initialized at 2013-03-31-24",
    "s2013043024":"initialized at 2013-04-30-24",
    "s2013053124":"initialized at 2013-05-31-24",
    "s2013063024":"initialized at 2013-06-30-24",
    "s2013073124":"initialized at 2013-07-31-24",
    "s2013083124":"initialized at 2013-08-31-24",
    "s2013093024":"initialized at 2013-09-30-24",
    "s2013103124":"initialized at 2013-10-31-24",
    "s2013113024":"initialized at 2013-11-30-24",
    "s2013123124":"initialized at 2013-12-31-24",
    "s2014013124":"initialized at 2014-01-31-24",
    "s2014022824":"initialized at 2014-02-28-24",
    "s2014033124":"initialized at 2014-03-31-24",
    "s2014043024":"initialized at 2014-04-30-24",
    "s2014053124":"initialized at 2014-05-31-24",
    "s2014063024":"initialized at 2014-06-30-24",
    "s2014073124":"initialized at 2014-07-31-24",
    "s2014083124":"initialized at 2014-08-31-24",
    "s2014093024":"initialized at 2014-09-30-24",
    "s2014103124":"initialized at 2014-10-31-24",
    "s2014113024":"initialized at 2014-11-30-24",
    "s2014123124":"initialized at 2014-12-31-24",
    "s2015013124":"initialized at 2015-01-31-24",
    "s2015022824":"initialized at 2015-02-28-24",
    "s2015033124":"initialized at 2015-03-31-24",
    "s2015043024":"initialized at 2015-04-30-24",
    "s2015053124":"initialized at 2015-05-31-24",
    "s2015063024":"initialized at 2015-06-30-24",
    "s2015073124":"initialized at 2015-07-31-24",
    "s2015083124":"initialized at 2015-08-31-24",
    "s2015093024":"initialized at 2015-09-30-24",
    "s2015103124":"initialized at 2015-10-31-24",
    "s2015113024":"initialized at 2015-11-30-24",
    "s2015123124":"initialized at 2015-12-31-24",
    "s2016013124":"initialized at 2016-01-31-24",
    "s2016022824":"initialized at 2016-02-28-24",
    "s2016033124":"initialized at 2016-03-31-24",
    "s2016043024":"initialized at 2016-04-30-24",
    "s2016053124":"initialized at 2016-05-31-24",
    "s2016063024":"initialized at 2016-06-30-24",
    "s2016073124":"initialized at 2016-07-31-24",
    "s2016083124":"initialized at 2016-08-31-24",
    "s2016093024":"initialized at 2016-09-30-24",
    "s2016103124":"initialized at 2016-10-31-24",
    "s2016113024":"initialized at 2016-11-30-24",
    "s2016123124":"initialized at 2016-12-31-24",
    "s2017013124":"initialized at 2017-01-31-24",
    "s2017022824":"initialized at 2017-02-28-24",
    "s2017033124":"initialized at 2017-03-31-24",
    "s2017043024":"initialized at 2017-04-30-24",
    "s2017053124":"initialized at 2017-05-31-24",
    "s2017063024":"initialized at 2017-06-30-24",
    "s2017073124":"initialized at 2017-07-31-24",
    "s2017083124":"initialized at 2017-08-31-24",
    "s2017093024":"initialized at 2017-09-30-24",
    "s2017103124":"initialized at 2017-10-31-24",
    "s2017113024":"initialized at 2017-11-30-24",
    "s2017123124":"initialized at 2017-12-31-24",
    "s2018013124":"initialized at 2018-01-31-24",
    "s2018022824":"initialized at 2018-02-28-24",
    "s2018033124":"initialized at 2018-03-31-24",
    "s2018043024":"initialized at 2018-04-30-24",
    "s2018053124":"initialized at 2018-05-31-24",
    "s2018063024":"initialized at 2018-06-30-24",
    "s2018073124":"initialized at 2018-07-31-24",
    "s2018083124":"initialized at 2018-08-31-24",
    "s2018093024":"initialized at 2018-09-30-24",
    "s2018103124":"initialized at 2018-10-31-24",
    "s2018113024":"initialized at 2018-11-30-24",
    "s2018123124":"initialized at 2018-12-31-24",
    "s2019013124":"initialized at 2019-01-31-24",
    "s2019022824":"initialized at 2019-02-28-24",
    "s2019033124":"initialized at 2019-03-31-24",
    "s2019043024":"initialized at 2019-04-30-24",
    "s2019053124":"initialized at 2019-05-31-24",
    "s2019063024":"initialized at 2019-06-30-24",
    "s2019073124":"initialized at 2019-07-31-24",
    "s2019083124":"initialized at 2019-08-31-24",
    "s2019093024":"initialized at 2019-09-30-24",
    "s2019103124":"initialized at 2019-10-31-24",
    "s2019113024":"initialized at 2019-11-30-24",
    "s2019123124":"initialized at 2019-12-31-24",
    "s2020013124":"initialized at 2020-01-31-24",
    "s2020022824":"initialized at 2020-02-28-24",
    "s2020033124":"initialized at 2020-03-31-24",
    "s2020043024":"initialized at 2020-04-30-24",
    "s2020053124":"initialized at 2020-05-31-24",
    "s2020063024":"initialized at 2020-06-30-24",
    "s2020073124":"initialized at 2020-07-31-24",
    "s2020083124":"initialized at 2020-08-31-24",
    "s2020093024":"initialized at 2020-09-30-24",
    "s2020103124":"initialized at 2020-10-31-24",
    "s2020113024":"initialized at 2020-11-30-24",
    "s2020123124":"initialized at 2020-12-31-24",
    "s2021013124":"initialized at 2021-01-31-24",
    "s2021022824":"initialized at 2021-02-28-24",
    "s2021033124":"initialized at 2021-03-31-24",
    "s2021043024":"initialized at 2021-04-30-24",
    "s2021053124":"initialized at 2021-05-31-24",
    "s2021063024":"initialized at 2021-06-30-24",
    "s2021073124":"initialized at 2021-07-31-24",
    "s2021083124":"initialized at 2021-08-31-24",
    "s2021093024":"initialized at 2021-09-30-24",
    "s2021103124":"initialized at 2021-10-31-24",
    "s2021113024":"initialized at 2021-11-30-24",
    "s2021123124":"initialized at 2021-12-31-24",
    "s2022013124":"initialized at 2022-01-31-24",
    "s2022022824":"initialized at 2022-02-28-24",
    "s2022033124":"initialized at 2022-03-31-24",
    "s2022043024":"initialized at 2022-04-30-24",
    "s2022053124":"initialized at 2022-05-31-24",
    "s2022063024":"initialized at 2022-06-30-24",
    "s2022073124":"initialized at 2022-07-31-24",
    "s2022083124":"initialized at 2022-08-31-24",
    "s2022093024":"initialized at 2022-09-30-24",
    "s2022103124":"initialized at 2022-10-31-24",
    "s2022113024":"initialized at 2022-11-30-24",
    "s2022123124":"initialized at 2022-12-31-24",
    "s2023013124":"initialized at 2023-01-31-24",
    "s2023022824":"initialized at 2023-02-28-24",
    "s2023033124":"initialized at 2023-03-31-24",
    "s2023043024":"initialized at 2023-04-30-24",
    "s2023053124":"initialized at 2023-05-31-24",
    "s2023063024":"initialized at 2023-06-30-24",
    "s2023073124":"initialized at 2023-07-31-24",
    "s2023083124":"initialized at 2023-08-31-24",
    "s2023093024":"initialized at 2023-09-30-24",
    "s2023103124":"initialized at 2023-10-31-24",
    "s2023113024":"initialized at 2023-11-30-24",
    "s2023123124":"initialized at 2023-12-31-24",
    "s2024013124":"initialized at 2024-01-31-24",
    "s2024022824":"initialized at 2024-02-28-24",
    "s2024033124":"initialized at 2024-03-31-24",
    "s2024043024":"initialized at 2024-04-30-24",
    "s2024053124":"initialized at 2024-05-31-24",
    "s2024063024":"initialized at 2024-06-30-24",
    "s2024073124":"initialized at 2024-07-31-24",
    "s2024083124":"initialized at 2024-08-31-24",
    "s2024093024":"initialized at 2024-09-30-24",
    "s2024103124":"initialized at 2024-10-31-24",
    "s2024113024":"initialized at 2024-11-30-24",
    "s2024123124":"initialized at 2024-12-31-24",
    "s2025013124":"initialized at 2025-01-31-24",
    "s2025022824":"initialized at 2025-02-28-24",
    "s2025033124":"initialized at 2025-03-31-24",
    "s2025043024":"initialized at 2025-04-30-24",
    "s2025053124":"initialized at 2025-05-31-24",
    "s2025063024":"initialized at 2025-06-30-24",
    "s2025073124":"initialized at 2025-07-31-24",
    "s2025083124":"initialized at 2025-08-31-24",
    "s2025093024":"initialized at 2025-09-30-24",
    "s2025103124":"initialized at 2025-10-31-24",
    "s2025113024":"initialized at 2025-11-30-24",
    "s2025123124":"initialized at 2025-12-31-24"
}

